{
  "updated_at": "2026-03-18T01:09:16.488+08:00",
  "current_page": 11,
  "total_pages": 11,
  "page_size": 60,
  "total_items": 601,
  "items": [
    {
      "id": "396fcc7d981afd0b",
      "source_id": "daily_ai_briefs",
      "source_name": "Daily AI Briefs",
      "source_type": "daily_ai_briefs",
      "platform": "Hugging Face Papers",
      "author": "taesiri et al.",
      "title": "EvoClaw: Evaluating AI Agents on Continuous Software Evolution",
      "blurb": "EvoClaw基准揭示AI代理在连续软件演化中的瓶颈，从孤立任务80%成功率降至38%，亟需改进长期维护能力。",
      "link": "https://evo-claw.com/",
      "canonical_link": "https://evo-claw.com/",
      "published_at": "2026-03-13T07:20:40.000+08:00",
      "score": 9,
      "tags": [
        "Hugging Face Papers",
        "benchmark"
      ],
      "source_page": "https://huggingface.co/papers/date/2026-03-17",
      "source_signal": "Featured on HF daily papers; new benchmark exposes AI agents' weaknesses in long-term software maintenance, critical for real-world deployment.",
      "recommendation": "EvoClaw基准揭示AI代理在连续软件演化中的瓶颈，从孤立任务80%成功率降至38%，亟需改进长期维护能力。",
      "summary": "EvoClaw引入DeepCommit管道，从提交日志重建可验证里程碑DAG，支持代理在动态环境中持续演化软件。评估12个前沿模型显示，代理难以维持系统完整性和控制错误累积。该基准填补现有孤立任务评估的空白。",
      "takeaways": [
        "代理在连续设置下性能锐减，暴露长期维护与错误传播问题",
        "DeepCommit启用真实软件演化基准，推动代理鲁棒性研究"
      ],
      "topic": "benchmark"
    }
  ]
}
