{
  "updated_at": "2026-04-25T05:41:30.814+08:00",
  "current_page": 17,
  "total_pages": 17,
  "page_size": 60,
  "total_items": 1000,
  "items": [
    {
      "id": "fc20458083968b71",
      "source_id": "x_ai_voices",
      "source_name": "X AI Voices",
      "source_type": "x_ai_voices",
      "platform": "X",
      "author": "@emollick",
      "title": "AI指数：前沿模型仅中美竞赛，美三大实验室领先",
      "blurb": "Ethan Mollick解读斯坦福AI指数首图：'notable'模型定义宽松，但真正前沿仅美中两国，美OpenAI/Anthropic/Google领先数月。中国依赖开源权重模型，若停止则无替代。主权前沿模型仅在中美可行。 揭示全球AI竞赛真实格局，帮助初创评估地缘风险和计算领先差距。运营商需关注美中开源动态。",
      "link": "https://x.com/emollick/status/2043924521137168472",
      "canonical_link": "https://x.com/emollick/status/2043924521137168472",
      "published_at": "2026-04-14T13:29:14.000+08:00",
      "score": 9,
      "tags": [
        "ai",
        "research",
        "market"
      ]
    },
    {
      "id": "53bd865d33b28c47",
      "source_id": "artist",
      "source_name": "AI Artist Signals",
      "source_type": "artist",
      "platform": "X",
      "author": "@op7418",
      "title": "Gemini + NanaBana2高端Logo生成工作流",
      "blurb": "探索Gemini生成SVG Logo结合NanaBana2可视化展示图流程。四张图像呈现抽象几何上流设计。该工作流高效产出设计初稿并讨论商标适用性。 降低Logo设计门槛，提供AI驱动VI灵感，适合独立创作者快速迭代品牌视觉。",
      "link": "https://x.com/op7418/status/2043913881526120528",
      "canonical_link": "https://x.com/op7418/status/2043913881526120528",
      "published_at": "2026-04-14T12:46:58.000+08:00",
      "score": 9,
      "tags": [
        "workflow"
      ]
    },
    {
      "id": "a006ea552a14b6b1",
      "source_id": "x_ai_voices",
      "source_name": "X AI Voices",
      "source_type": "x_ai_voices",
      "platform": "X",
      "author": "@emollick",
      "title": "美国数据中心转向农村，公众意见影响小",
      "blurb": "38%美国人5英里内有运营数据中心，但对设施意见影响有限。Pew研究指未来多数新DC将建农村。 基础设施运营商获市场洞察：农村选址趋势。初创规划AI计算资源时考虑政策。",
      "link": "https://x.com/emollick/status/2043904225944514728",
      "canonical_link": "https://x.com/emollick/status/2043904225944514728",
      "published_at": "2026-04-14T12:08:36.000+08:00",
      "score": 7,
      "tags": [
        "infra",
        "market"
      ]
    },
    {
      "id": "6fa14152881c074e",
      "source_id": "aiindie",
      "source_name": "AI Indie Hacker Signals",
      "source_type": "aiindie",
      "platform": "X",
      "author": "@yihui_indie",
      "title": "用Agent跑海外社媒营销，发现Pollo TikTok矩阵账号成功原因",
      "blurb": "作者尝试使用AI Agent运营海外社交媒体营销，发现Pollo AI通过TikTok上数十个不同主题的矩阵账号，获得不错流量和粉丝增长。强调这种多账号矩阵策略是其成功关键。附图展示具体账号表现。 为AI独立黑客提供代理自动化分发增长的实战案例，帮助理解社交矩阵运营在海外市场的杠杆，提升对AI工具分发策略的判断力。",
      "link": "https://x.com/yihui_indie/status/2043890454702502291",
      "canonical_link": "https://x.com/yihui_indie/status/2043890454702502291",
      "published_at": "2026-04-14T11:13:52.000+08:00",
      "score": 8,
      "tags": [
        "agent",
        "distribution",
        "growth"
      ]
    },
    {
      "id": "9b4e67afb79c49d4",
      "source_id": "artist",
      "source_name": "AI Artist Signals",
      "source_type": "artist",
      "platform": "X",
      "author": "@CoffeeVectors",
      "title": "Crash Out: Seedance 2 spaceship re-entry shots and camera transitions test",
      "blurb": "CoffeeVectors 在 Seedance 2 中测试飞船再入大气层镜头和大相机转换，展示了三个连续剪辑，并添加了 @suno 生成的音乐。分享了详细提示词，包括从飞行员面罩特写拉远至太空环绕、穿过大气层再回特写的连续镜头描述，以及灯光、颜色和音效细节。该作品呈现了科幻电影级的安纳摩菲美学和高对比度视觉效果。 创作者可从中学习新兴工具 Seedance 2 的相机控制与过渡能力，以及如何结合 Midjourney 首帧图像和 S…",
      "link": "https://x.com/CoffeeVectors/status/2043871286804296058",
      "canonical_link": "https://x.com/CoffeeVectors/status/2043871286804296058",
      "published_at": "2026-04-14T09:57:42.000+08:00",
      "score": 9,
      "tags": [
        "showcase",
        "workflow",
        "prompting",
        "tooling"
      ]
    },
    {
      "id": "51f7d539f17d3e2b",
      "source_id": "aiindie",
      "source_name": "AI Indie Hacker Signals",
      "source_type": "aiindie",
      "platform": "X",
      "author": "@marckohlbrugge",
      "title": "Cloudflare CLI is coming!",
      "blurb": "Marc 引用自己旧帖，分享 Cloudflare 即将推出 CLI 工具，支持本地管理 DNS、防火墙等。该工具将使 AI 编码代理更容易操作基础设施，提升自动化能力。回应了之前对 CLI 以支持 LLM 的需求。 对 AI indie hacker，这提供基础设施自动化的杠杆工具，帮助代理管理云服务，减少手动 ops，提高工作流效率。",
      "link": "https://x.com/marckohlbrugge/status/2043833227199033417",
      "canonical_link": "https://x.com/marckohlbrugge/status/2043833227199033417",
      "published_at": "2026-04-14T07:26:28.000+08:00",
      "score": 8,
      "tags": [
        "tooling",
        "automation",
        "workflow"
      ]
    },
    {
      "id": "4e538fca2cfb6450",
      "source_id": "x_ai_voices",
      "source_name": "X AI Voices",
      "source_type": "x_ai_voices",
      "platform": "X",
      "author": "@HarryStebbings",
      "title": "Founders' biggest mistake: Too slow to let go underperformers",
      "blurb": "与创始人合作中最常见的最大错误：对低绩效团队成员离职太慢。最澄清的问题：知道现在一切，如果重来，我还会雇他们吗？此问题最具指导性。 指导创始人果断管理团队，避免低绩效拖累增长，构建高绩效文化，对运营至关重要。",
      "link": "https://x.com/HarryStebbings/status/2043797856193016092",
      "canonical_link": "https://x.com/HarryStebbings/status/2043797856193016092",
      "published_at": "2026-04-14T05:05:55.000+08:00",
      "score": 9,
      "tags": [
        "startup",
        "strategy"
      ]
    },
    {
      "id": "823f5781697e2216",
      "source_id": "artist",
      "source_name": "AI Artist Signals",
      "source_type": "artist",
      "platform": "X",
      "author": "@bananababydoll",
      "title": "Dua Lipa 高时尚健身照 JSON 提示词",
      "blurb": "分享了 Dua Lipa 的超写实健身照 JSON 提示词，详细定义了相机、场景、主体身份锁定、姿势、服装、构图和灯光等参数。强调高保真面部结构和自然布料张力，适用于 iPhone 风格工作室拍摄。创作者可直接复制结构生成类似高质量肖像。 JSON 结构化提示极大提升了身份锁定和细节控制，帮助创作者高效产出商业级人像，避免随机生成。",
      "link": "https://x.com/bananababydoll/status/2043788818042573099",
      "canonical_link": "https://x.com/bananababydoll/status/2043788818042573099",
      "published_at": "2026-04-14T04:30:00.000+08:00",
      "score": 9,
      "tags": [
        "prompting"
      ]
    },
    {
      "id": "368f7f738a28d303",
      "source_id": "artist",
      "source_name": "AI Artist Signals",
      "source_type": "artist",
      "platform": "X",
      "author": "@bri_guy_ai",
      "title": "70s 复古大卷发肖像提示参数",
      "blurb": "展示大卷发女性皮革肖像，附提示：Big hair, female, leather 等 + --chaos 17 --ar 2:3 --stylize 1000 等参数。 参数组合揭示复古风格控制技巧，结合 chaos 和 stylize 平衡创意与一致性。",
      "link": "https://x.com/bri_guy_ai/status/2043779170417664422",
      "canonical_link": "https://x.com/bri_guy_ai/status/2043779170417664422",
      "published_at": "2026-04-14T03:51:40.000+08:00",
      "score": 7,
      "tags": [
        "prompting",
        "style"
      ]
    },
    {
      "id": "f7a0b728f1a575bd",
      "source_id": "aiindie",
      "source_name": "AI Indie Hacker Signals",
      "source_type": "aiindie",
      "platform": "X",
      "author": "@nicolaiklemke",
      "title": "Building AI music platform @neuralframes in Berlin: music ecosystem + talent edge over SF",
      "blurb": "Nicolai解释在柏林构建AI音乐视频平台@neuralframes的优势：Ableton、Native Instruments、Soundcloud等音乐科技巨头源于此，艺术景观一流，便于借力。但德国初创规则繁琐，许多年轻人瞄准SF签证。同时柏林竞争少，便于从欧洲吸引顶尖人才。 揭示非硅谷位置策略的杠杆点，为AI独立黑客提供人才获取与市场定位洞见，避免盲目追逐SF。",
      "link": "https://x.com/nicolaiklemke/status/2043773265189953896",
      "canonical_link": "https://x.com/nicolaiklemke/status/2043773265189953896",
      "published_at": "2026-04-14T03:28:12.000+08:00",
      "score": 8,
      "tags": [
        "strategy",
        "business"
      ]
    },
    {
      "id": "c9d566173a1ebeb0",
      "source_id": "aiindie",
      "source_name": "AI Indie Hacker Signals",
      "source_type": "aiindie",
      "platform": "X",
      "author": "@PaddleHQ",
      "title": "Lovable集成Paddle，即时从idea到revenue",
      "blurb": "Lovable（idea到product数小时AI构建器）上线Paddle MoR支付，内置税费计费合规，支持全球销售。加速builder从原型到变现。 展示AI构建工具monetization集成路径，提供全球支付杠杆，启发indie hacker快速launch定价策略。",
      "link": "https://x.com/PaddleHQ/status/2043717018768310412",
      "canonical_link": "https://x.com/PaddleHQ/status/2043717018768310412",
      "published_at": "2026-04-13T23:44:42.000+08:00",
      "score": 7,
      "tags": [
        "launch",
        "monetization",
        "strategy"
      ]
    },
    {
      "id": "fe4d556d2214b769",
      "source_id": "aiindie",
      "source_name": "AI Indie Hacker Signals",
      "source_type": "aiindie",
      "platform": "X",
      "author": "@xiongchun007",
      "title": "用AICoding打造AI开发团队，熊二上线迭代加速，计划扩编熊三",
      "blurb": "作者在DataCollie项目中引入AICoding，创建熊二AI代理作为开发团队2号位，每天共同拆分业务逻辑、设计数据模型、选择实现方式并审查代码。人类发挥智能优势负责快速拆解和设计，AI则任劳任怨执行具体行动，导致出活更快。拆分速度提升明显，计划再加熊三在独立模块并行开发，利用Git协作让迭代速度起飞。 展示了AI代理如何为独立开发者构建虚拟团队，实现人类+硅基分工的高效协作，是提升solo dev生产力的核心战术，具有高度可复制…",
      "link": "https://x.com/xiongchun007/status/2043708652511809925",
      "canonical_link": "https://x.com/xiongchun007/status/2043708652511809925",
      "published_at": "2026-04-13T23:11:27.000+08:00",
      "score": 9,
      "tags": [
        "workflow",
        "agent",
        "automation"
      ]
    },
    {
      "id": "aef86cc7a7efff8c",
      "source_id": "x_ai_signals",
      "source_name": "X AI Signals",
      "source_type": "x_ai_signals",
      "platform": "X",
      "author": "@Ronald_vanLoon",
      "title": "企业AI策略落后：从模型转向系统构建与混合模型",
      "blurb": "企业AI策略仍停留在模型选择，而真正转变在系统层面，包括运行时、内存、工具访问、编排和安全环境。建议混合专有模型（规模能力）和开源模型（灵活控制），通过实时编排路由任务。胜出者是构建最佳智能系统的公司。 揭示AI从组件到代理系统的实战路径，提供平衡性能、成本、治理的策略，避免单一模型锁定风险，前瞻企业竞争格局。",
      "link": "https://x.com/Ronald_vanLoon/status/2043705875290841544",
      "canonical_link": "https://x.com/Ronald_vanLoon/status/2043705875290841544",
      "published_at": "2026-04-13T23:00:25.000+08:00",
      "score": 9,
      "tags": [
        "AI",
        "企业",
        "工具链"
      ]
    },
    {
      "id": "c59bd9adeb5219f1",
      "source_id": "x_ai_voices",
      "source_name": "X AI Voices",
      "source_type": "x_ai_voices",
      "platform": "X",
      "author": "@mattshumer_",
      "title": "Claude Mythos is the first model to complete AISI cyber range end-to-end—showcasing its hacking prowess",
      "blurb": "引用AISI评估，Claude Mythos首完成端到端网络靶场任务。作者称此为黑客能力又一例证，预计更多独立验证将凸显其强大与潜在危险。 提醒创始人注意前沿AI编码模型的双刃剑效应，推动安全优先的产品开发。",
      "link": "https://x.com/mattshumer_/status/2043701407593738514",
      "canonical_link": "https://x.com/mattshumer_/status/2043701407593738514",
      "published_at": "2026-04-13T22:42:40.000+08:00",
      "score": 7,
      "tags": [
        "ai",
        "research",
        "product"
      ]
    },
    {
      "id": "317b4fbd612a927f",
      "source_id": "x_ai_signals",
      "source_name": "X AI Signals",
      "source_type": "x_ai_signals",
      "platform": "X",
      "author": "@Astronaut_1216",
      "title": "中小企业AI转型意愿分化观察",
      "blurb": "基于近期企业和个人交付经验，发现优质小企业愿意转型提效，而业务低效企业不愿花钱提升，只想着裁员。市场越穷越不愿投资自己，形成恶性循环。提醒AI服务提供者注意客户筛选。 实战销售信号：低效企业风险高，易进入裁员循环；机会点针对优质小企业，提供转型方案。",
      "link": "https://x.com/Astronaut_1216/status/2043700030578548746",
      "canonical_link": "https://x.com/Astronaut_1216/status/2043700030578548746",
      "published_at": "2026-04-13T22:37:12.000+08:00",
      "score": 8,
      "tags": [
        "AI",
        "创业"
      ]
    },
    {
      "id": "22c4466cc80fa1d2",
      "source_id": "x_ai_signals",
      "source_name": "X AI Signals",
      "source_type": "x_ai_signals",
      "platform": "X",
      "author": "@hnshah",
      "title": "用AI优化SaaS主页文案的结构化方法",
      "blurb": "多数AI主页文案为空洞填充，反向用AI生成流畅、高转化主页：结构、线框、消息系统。明日直播分享prompts和模板。 直接可执行增长技巧，针对SaaS痛点，提供工具链和工作流。",
      "link": "https://x.com/hnshah/status/2043698650174693799",
      "canonical_link": "https://x.com/hnshah/status/2043698650174693799",
      "published_at": "2026-04-13T22:31:42.000+08:00",
      "score": 7,
      "tags": [
        "SaaS",
        "增长",
        "工具链"
      ]
    },
    {
      "id": "d5ef9c4d6e86604f",
      "source_id": "x_ai_signals",
      "source_name": "X AI Signals",
      "source_type": "x_ai_signals",
      "platform": "X",
      "author": "@jasonlk",
      "title": "挣扎初创CEO的四点行为指南",
      "blurb": "避免隐身、发泄、非工作帖；转为现身、诚实、当磐石、现实乐观。如此加速增长。 创业执行细节，可直接应用降低风险。",
      "link": "https://x.com/jasonlk/status/2043698528925397241",
      "canonical_link": "https://x.com/jasonlk/status/2043698528925397241",
      "published_at": "2026-04-13T22:31:14.000+08:00",
      "score": 6,
      "tags": [
        "创业",
        "增长"
      ]
    },
    {
      "id": "9260ba9486077ab5",
      "source_id": "aiindie",
      "source_name": "AI Indie Hacker Signals",
      "source_type": "aiindie",
      "platform": "X",
      "author": "@RevenueCat",
      "title": "In-App Ad Revenue Tracking is now in the RevenueCat Dashboard",
      "blurb": "RevenueCat 仪表板新增应用内广告收入跟踪功能，支持混合广告与订阅变现的应用开发者统一分析总收入。兼容 AdMob 等平台，提供 eCPM、impressions、fill rate 等关键指标，并整合到 LTV 和收入图表中。目前处于 beta 阶段。 AI indie hacker 常需处理多变现渠道，这项功能避免仪表板拼接，提供完整用户价值洞察，提升 monetization 决策效率。",
      "link": "https://x.com/RevenueCat/status/2043698297836286418",
      "canonical_link": "https://x.com/RevenueCat/status/2043698297836286418",
      "published_at": "2026-04-13T22:30:18.000+08:00",
      "score": 9,
      "tags": [
        "analytics",
        "monetization"
      ]
    },
    {
      "id": "d65b812eedcef27b",
      "source_id": "x_ai_signals",
      "source_name": "X AI Signals",
      "source_type": "x_ai_signals",
      "platform": "X",
      "author": "@evilcos",
      "title": "Agent构建实践：框架+模型+提示词组合是关键",
      "blurb": "一个表现不错的Agent等于A（Agent框架如Hermes Agent或OpenClaw）+B（还不错的模型）+C（强大的提示词+工具+流程）。提示词组合是灵魂，许多时候不需要最顶尖模型。强调框架可折腾性。 提炼Agent实战公式，信息密度高，可直接指导开发者构建高效Agent，避免盲目追求最强模型。",
      "link": "https://x.com/evilcos/status/2043698045314093070",
      "canonical_link": "https://x.com/evilcos/status/2043698045314093070",
      "published_at": "2026-04-13T22:29:18.000+08:00",
      "score": 9,
      "tags": [
        "AI",
        "Agent",
        "工具链"
      ]
    },
    {
      "id": "d8a4be321bcda842",
      "source_id": "artist",
      "source_name": "AI Artist Signals",
      "source_type": "artist",
      "platform": "X",
      "author": "@bananababydoll",
      "title": "Madison Beer luxury mirror selfie with detailed JSON prompt structure",
      "blurb": "分享了一个高度结构化的JSON提示，用于生成Madison Beer的夜间奢华浴室自拍。提示包括元数据、主体细节、姿势、表情、服装、环境和照明等全面控制参数。强调真实iPhone拍摄效果，如闪光灯混合光线和高细节皮肤纹理。 Provides a reusable JSON template for precise celebrity likeness and photoreal selfies, demonstrating advan…",
      "link": "https://x.com/bananababydoll/status/2043697968469905724",
      "canonical_link": "https://x.com/bananababydoll/status/2043697968469905724",
      "published_at": "2026-04-13T22:29:00.000+08:00",
      "score": 9,
      "tags": [
        "prompting"
      ]
    },
    {
      "id": "c6d33594c9eb098b",
      "source_id": "x_ai_signals",
      "source_name": "X AI Signals",
      "source_type": "x_ai_signals",
      "platform": "X",
      "author": "@lijigang",
      "title": "ljg-skills 新增 /ljg-read 智能伴读工具",
      "blurb": "skill武器库新增/ljg-read，用于每日精读时智能提取结构，与个人理解碰撞。适用于文章、论文、书籍。示例分析Claude宪法phase 0阶段。 提供实战阅读提效工作流，优化AI辅助学习闭环，高可执行性。",
      "link": "https://x.com/lijigang/status/2043697756481720367",
      "canonical_link": "https://x.com/lijigang/status/2043697756481720367",
      "published_at": "2026-04-13T22:28:09.000+08:00",
      "score": 9,
      "tags": [
        "工具链",
        "AI工作流"
      ]
    },
    {
      "id": "6983de34812b1dc8",
      "source_id": "x_ai_voices",
      "source_name": "X AI Voices",
      "source_type": "x_ai_voices",
      "platform": "X",
      "author": "@simonw",
      "title": "编码代理让代码质量提升：琐碎改进零成本委托",
      "blurb": "Simon Willison分享使用编码代理的体验：发现代码中需要20多处修改的可读性优化时，直接让代理执行，几乎无成本。以前会权衡30分钟时间价值往往放弃，导致代码质量打折。现在代理处理琐事，他能产出更好代码。该线程讨论多项目上下文切换实践。 开发者可借AI代理解放时间专注核心逻辑，提升生产力和代码质量。创始人构建AI工具时，可参考此工作流优化团队效率。",
      "link": "https://x.com/simonw/status/2043697482618868103",
      "canonical_link": "https://x.com/simonw/status/2043697482618868103",
      "published_at": "2026-04-13T22:27:04.000+08:00",
      "score": 9,
      "tags": [
        "ai",
        "workflow"
      ]
    },
    {
      "id": "c49914b62690fc01",
      "source_id": "x_ai_signals",
      "source_name": "X AI Signals",
      "source_type": "x_ai_signals",
      "platform": "X",
      "author": "@NathanLatka",
      "title": "9位AI创始人分享如何做到1.4亿美元营收",
      "blurb": "Nathan Latka组织9位AI创始人直播分享营收路径，总营收达1.4亿美元。邀请感兴趣者参与。附带创始人名单图片。这是AI创业实战复盘机会。 直接从高营收AI创始人处获取增长路径和执行细节，具有极高实战价值和可复制性",
      "link": "https://x.com/NathanLatka/status/2043697011040412150",
      "canonical_link": "https://x.com/NathanLatka/status/2043697011040412150",
      "published_at": "2026-04-13T22:25:12.000+08:00",
      "score": 9,
      "tags": [
        "AI",
        "创业",
        "增长"
      ]
    },
    {
      "id": "851ca3e7fcb00523",
      "source_id": "artist",
      "source_name": "AI Artist Signals",
      "source_type": "artist",
      "platform": "X",
      "author": "@Artedeingenio",
      "title": "Topview 优于 Dreamina 的生成与审查体验",
      "blurb": "针对用户关于 Topview 与 Dreamina 差异的疑问，指出两者可能是同一模型，但 Topview 在个人测试中输出质量更高，且审查图像更少。分享了实际使用偏好。 揭示流行图像生成平台的微妙差异，帮助创作者避开审查坑，选择更可靠工具。",
      "link": "https://x.com/Artedeingenio/status/2043696866756342045",
      "canonical_link": "https://x.com/Artedeingenio/status/2043696866756342045",
      "published_at": "2026-04-13T22:24:37.000+08:00",
      "score": 7,
      "tags": [
        "model-comparison"
      ]
    },
    {
      "id": "592571e745ed71a7",
      "source_id": "x_ai_voices",
      "source_name": "X AI Voices",
      "source_type": "x_ai_voices",
      "platform": "X",
      "author": "@gregisenberg",
      "title": "NEW DISTRIBUTION HACK: Google now indexes people via 'Forums' and 'Short Video' tabs",
      "blurb": "Greg 发现 Google 搜索新增 'Forums' 和 'Short Video' 专用标签，前者聚焦真实经历，后者展示实际操作演示。这标志着 Google 从索引网页转向索引个人，为创业者创造了多年未见的顶级分发机会。建议立即开始利用这两个渠道。 对创始人而言，这揭示了搜索引擎向用户生成内容倾斜的趋势，帮助优化分发策略，提升产品曝光和用户获取效率。",
      "link": "https://x.com/gregisenberg/status/2043692305475936280",
      "canonical_link": "https://x.com/gregisenberg/status/2043692305475936280",
      "published_at": "2026-04-13T22:06:30.000+08:00",
      "score": 9,
      "tags": [
        "startup",
        "strategy",
        "product",
        "market"
      ]
    },
    {
      "id": "d3ebb17a70fb885d",
      "source_id": "x_ai_signals",
      "source_name": "X AI Signals",
      "source_type": "x_ai_signals",
      "platform": "X",
      "author": "@lilyraynyc",
      "title": "AI Overviews减少列表文，转向YouTube/Reddit及旧内容",
      "blurb": "过去几天AI Overviews中列表文减少，出现更多YouTube、Reddit和较旧内容。仍属轶事观察，询问他人是否类似。 捕捉Google AI搜索分发规则变动信号，长尾/UGC内容机会上升，列表文SEO风险增加。",
      "link": "https://x.com/lilyraynyc/status/2043692077892935793",
      "canonical_link": "https://x.com/lilyraynyc/status/2043692077892935793",
      "published_at": "2026-04-13T22:05:35.000+08:00",
      "score": 8,
      "tags": [
        "SEO",
        "搜索平台规则"
      ]
    },
    {
      "id": "715da59444ffcfc1",
      "source_id": "artist",
      "source_name": "AI Artist Signals",
      "source_type": "artist",
      "platform": "X",
      "author": "@CharaspowerAI",
      "title": "Seedance 2 cinematic tsunami chase prompt share",
      "blurb": "分享了Seedance 2的电影动作镜头提示：男子在沿海城市奔跑，海啸吞没建筑，追踪镜头伴随水流和碎片。强调动态抖动、压倒性规模和真实混乱感。完美捕捉高冲击动作序列。 Direct prompt for high-energy VFX scenes, useful for action video gen.",
      "link": "https://x.com/CharaspowerAI/status/2043690693558710540",
      "canonical_link": "https://x.com/CharaspowerAI/status/2043690693558710540",
      "published_at": "2026-04-13T22:00:05.000+08:00",
      "score": 8,
      "tags": [
        "prompting",
        "tooling"
      ]
    },
    {
      "id": "f793ff573ae37348",
      "source_id": "x_ai_voices",
      "source_name": "X AI Voices",
      "source_type": "x_ai_voices",
      "platform": "X",
      "author": "@emollick",
      "title": "The 'compute bubble' narrative that AI demand would plateau was everywhere six months ago—and spectacularly wrong",
      "blurb": "六个月前，AI社区广泛认为计算能力将过剩，因为AI使用将趋于平稳，形成'计算泡沫'。现实证明这一观点完全错误，AI对计算资源的需求持续强劲。该观察提醒我们，避免基于错误假设做决策。 创始人与运营商需认识到AI基础设施需求旺盛，避免悲观误判市场机会，有助于战略投资数据中心与计算资源。",
      "link": "https://x.com/emollick/status/2043690650550329710",
      "canonical_link": "https://x.com/emollick/status/2043690650550329710",
      "published_at": "2026-04-13T21:59:55.000+08:00",
      "score": 9,
      "tags": [
        "ai",
        "market",
        "research"
      ]
    },
    {
      "id": "55d06c8a54edc9c3",
      "source_id": "aiindie",
      "source_name": "AI Indie Hacker Signals",
      "source_type": "aiindie",
      "platform": "X",
      "author": "@Shpigford",
      "title": "AI collects ALL OF THE SOURCES",
      "blurb": "Shpigford 惊叹 AI 能自动收集所有相关来源，附图展示强大信息聚合能力，突出 AI 在研究中的突破。 展示 AI 工作流杠杆，帮助 indie hacker 加速调研和验证想法，减少手动信息收集时间。",
      "link": "https://x.com/Shpigford/status/2043689991528656972",
      "canonical_link": "https://x.com/Shpigford/status/2043689991528656972",
      "published_at": "2026-04-13T21:57:18.000+08:00",
      "score": 7,
      "tags": [
        "workflow",
        "agent"
      ]
    },
    {
      "id": "5f263c494b4858f1",
      "source_id": "x_ai_signals",
      "source_name": "X AI Signals",
      "source_type": "x_ai_signals",
      "platform": "X",
      "author": "@MengTo",
      "title": "Neuform.ai 发布：将设计系统转化为技能，支持动画/WebGL/Three.js",
      "blurb": "推出Neuform工具，通过living DESIGN.md生成高级设计，支持将设计系统转化为可重混技能，输出独特动画、WebGL和Three.js效果。针对设计师和开发者，提供从静态规则到动态生成的设计工作流。已在实际使用中展示强大生成能力。 产品实战进展，直接解决AI设计工具的模板泛化问题，提供高可执行的设计链创新机会；关注WebGL集成可捕捉3D设计趋势。",
      "link": "https://x.com/MengTo/status/2043688125088903583",
      "canonical_link": "https://x.com/MengTo/status/2043688125088903583",
      "published_at": "2026-04-13T21:49:53.000+08:00",
      "score": 9,
      "tags": [
        "AI",
        "独立开发",
        "工具链"
      ]
    },
    {
      "id": "ea1cd8fd4b50bcd8",
      "source_id": "x_ai_signals",
      "source_name": "X AI Signals",
      "source_type": "x_ai_signals",
      "platform": "X",
      "author": "@hongming731",
      "title": "BestBlogs 2.0内测申请达177份",
      "blurb": "BestBlogs升级2.0，支持自定义RSS/OPML导入、AI每日早报、个性化推荐、AI伴读。内测收到177份申请，将分析需求逐步开放。新增RSS订阅每日简报。 开发者信息过载痛点，此产品迭代提供高效工具链，实战验证用户需求。",
      "link": "https://x.com/hongming731/status/2043687160445018258",
      "canonical_link": "https://x.com/hongming731/status/2043687160445018258",
      "published_at": "2026-04-13T21:46:03.000+08:00",
      "score": 9,
      "tags": [
        "独立开发",
        "工具链",
        "AI"
      ]
    },
    {
      "id": "b2eddc5f2761128b",
      "source_id": "x_ai_signals",
      "source_name": "X AI Signals",
      "source_type": "x_ai_signals",
      "platform": "X",
      "author": "@shao__meng",
      "title": "构建生产级AI Agent的7条实战经验",
      "blurb": "分享从简单Agent失败中总结的7条经验：全链路追踪、输入输出护栏、LLM评判、错误分析、上下文工程、模型网关、人工反馈。强调Agent静默失败率高，需硬约束和可观测性。适用于生产环境落地。 提供可执行的Agent工程框架，避免常见坑点；实战导向，帮助AI创业者快速迭代可靠产品。",
      "link": "https://x.com/shao__meng/status/2043686445580238929",
      "canonical_link": "https://x.com/shao__meng/status/2043686445580238929",
      "published_at": "2026-04-13T21:43:13.000+08:00",
      "score": 9,
      "tags": [
        "AI",
        "工具链",
        "Agent开发"
      ]
    },
    {
      "id": "abf54cd61d5ced03",
      "source_id": "aiindie",
      "source_name": "AI Indie Hacker Signals",
      "source_type": "aiindie",
      "platform": "X",
      "author": "@Shpigford",
      "title": "Young people prefer apps over websites, future is mobile apps not web",
      "blurb": "资深 builder Shpigford 分享观察：20多岁年轻人避免浏览器和笔记本，全用移动 app 和游戏。强调未来构建重点应为 native app 而非网站。 帮助 AI indie hacker 调整分发策略，避免 web 优先的误区，针对年轻用户市场优化产品形式和渠道。",
      "link": "https://x.com/Shpigford/status/2043685698281066722",
      "canonical_link": "https://x.com/Shpigford/status/2043685698281066722",
      "published_at": "2026-04-13T21:40:14.000+08:00",
      "score": 8,
      "tags": [
        "distribution",
        "strategy"
      ]
    },
    {
      "id": "22b44e7a466616e4",
      "source_id": "aiindie",
      "source_name": "AI Indie Hacker Signals",
      "source_type": "aiindie",
      "platform": "X",
      "author": "@CoooolXyh",
      "title": "Claude实时智商评级网站上线：isitnerfed.vercel.app",
      "blurb": "响应之前提出的想法，作者上线isitnerfed.vercel.app网站，用户可实时为最近一小时Claude的智商打1-5星，帮助追踪模型性能波动如下午降智现象。网站支持实时投票和分数展示，已有使用案例。 快速将痛点idea转化为上线工具，提供AI模型性能监控杠杆，对依赖Claude的indie hacker有直接操作价值，体现快速shipping精神。",
      "link": "https://x.com/CoooolXyh/status/2043685296546664871",
      "canonical_link": "https://x.com/CoooolXyh/status/2043685296546664871",
      "published_at": "2026-04-13T21:38:39.000+08:00",
      "score": 8,
      "tags": [
        "tooling",
        "prompt",
        "evals"
      ]
    },
    {
      "id": "2b9d967cf6328532",
      "source_id": "artist",
      "source_name": "AI Artist Signals",
      "source_type": "artist",
      "platform": "X",
      "author": "@underwoodxie96",
      "title": "Nano Banana Pro 详细 JSON 提示分享",
      "blurb": "分享 Nano Banana Pro 的 JSON 结构化提示，用于生成氛围独特的图像，如浴缸泡泡场景或酒吧兔女郎造型。提示覆盖主体描述、发型、姿势、服装、摄影风格、背景和约束条件，确保高一致性和真实感。链接到 promptsref.com 库，便于直接使用。 提供模块化提示模板，帮助创作者快速掌握结构化提示工程，提升图像一致性和细节控制",
      "link": "https://x.com/underwoodxie96/status/2043684848574063090",
      "canonical_link": "https://x.com/underwoodxie96/status/2043684848574063090",
      "published_at": "2026-04-13T21:36:52.000+08:00",
      "score": 8,
      "tags": [
        "prompting",
        "workflow",
        "tooling"
      ]
    },
    {
      "id": "93d2b05ca83cc448",
      "source_id": "aiindie",
      "source_name": "AI Indie Hacker Signals",
      "source_type": "aiindie",
      "platform": "X",
      "author": "@op7418",
      "title": "Seedance 2.0产品宣传动画提示词模板",
      "blurb": "分享了Seedance 2.0生成15秒一镜到底产品宣传动画的详细提示词模板，包括4种美学风格选择、严格撰写规则和输出模板。模板强调流畅形变过渡、时间戳分镜设计和Logo结尾展示。作者用其为CodePilot制作了新logo动画视频。 为AI独立开发者提供即插即用的prompt工程范式，快速生成专业营销视频，节省外包设计成本，提升landing page转化。突出AI工具在内容创作中的杠杆作用，可复用于SaaS产品宣传。",
      "link": "https://x.com/op7418/status/2043681071565517238",
      "canonical_link": "https://x.com/op7418/status/2043681071565517238",
      "published_at": "2026-04-13T21:21:51.000+08:00",
      "score": 9,
      "tags": [
        "prompt",
        "automation",
        "content",
        "workflow"
      ]
    },
    {
      "id": "0f292fe95e076dfa",
      "source_id": "aiindie",
      "source_name": "AI Indie Hacker Signals",
      "source_type": "aiindie",
      "platform": "X",
      "author": "@CoooolXyh",
      "title": "Claude Opus 最近一周蠢过头，上线实时智商评级网站 isitnerfed.vercel.app",
      "blurb": "开发者@CoooolXyh体感Claude下午编码变傻，早在3月底提出实时一小时智商评级网站想法。今日正式上线https://isitnerfed.vercel.app/，用户可给Claude表现打1-5星，显示实时分数和历史趋势。最近一周Opus表现差，他确认非错觉。 对AI独立开发者，这展示了快速从痛点构建简单evlas工具的价值，能监控模型波动优化工作流，避免时段性降智影响生产力，提供数据驱动的模型选择判断。",
      "link": "https://x.com/CoooolXyh/status/2043679909059715512",
      "canonical_link": "https://x.com/CoooolXyh/status/2043679909059715512",
      "published_at": "2026-04-13T21:17:14.000+08:00",
      "score": 8,
      "tags": [
        "launch",
        "tooling",
        "workflow",
        "analytics"
      ]
    },
    {
      "id": "767a945c5dd6591b",
      "source_id": "x_ai_signals",
      "source_name": "X AI Signals",
      "source_type": "x_ai_signals",
      "platform": "X",
      "author": "@abskoop",
      "title": "中年失业生存指南：网页版财务模拟器",
      "blurb": "基于学术论文的财务生存模拟器，输入存款、月支出和计划年数，即可查看存活概率与终端财富分布。专为评估职场空窗期存款支撑时长设计，避免简单余额计算的局限。免费门槛低，缓解未知焦虑。 AI创业高风险期常见失业担忧，此工具提供量化风险评估，帮助决策副业或缓冲规划。",
      "link": "https://x.com/abskoop/status/2043678429992890613",
      "canonical_link": "https://x.com/abskoop/status/2043678429992890613",
      "published_at": "2026-04-13T21:11:22.000+08:00",
      "score": 8,
      "tags": [
        "创业",
        "增长",
        "工具链"
      ]
    },
    {
      "id": "e2d1f75df3ae666d",
      "source_id": "x_ai_signals",
      "source_name": "X AI Signals",
      "source_type": "x_ai_signals",
      "platform": "X",
      "author": "@shao__meng",
      "title": "Apify开源Claude Code数据抓取Skills集合",
      "blurb": "Apify推出awesome-skills，开源9类预构建抓取器：受众分析、品牌监测、竞品情报、电商价格跟踪等。连接Claude Code作为Agent技能，扩展外部数据访问。GitHub地址提供即用模板。 解决Agent数据孤岛问题，提供现成工具链；出海SaaS可用于市场情报和增长监控，加速MVP。",
      "link": "https://x.com/shao__meng/status/2043674791421321352",
      "canonical_link": "https://x.com/shao__meng/status/2043674791421321352",
      "published_at": "2026-04-13T20:56:54.000+08:00",
      "score": 8,
      "tags": [
        "AI",
        "工具链",
        "增长",
        "出海"
      ]
    },
    {
      "id": "f5ea26e97c952fa2",
      "source_id": "x_ai_signals",
      "source_name": "X AI Signals",
      "source_type": "x_ai_signals",
      "platform": "X",
      "author": "@hongming731",
      "title": "Terence Tao：AI广度 vs 人类深度",
      "blurb": "Terence Tao论文提出‘Copernican View of Intelligence’：AI擅长广度覆盖，人类擅长深度洞察。勿视AI为‘更聪明’线性替代，而是互补工具。Human + AI > 单独一方。 重塑AI创业思维，避免过度依赖，转向广度工具+人类深度执行的混合模式。",
      "link": "https://x.com/hongming731/status/2043673648717074572",
      "canonical_link": "https://x.com/hongming731/status/2043673648717074572",
      "published_at": "2026-04-13T20:52:22.000+08:00",
      "score": 8,
      "tags": [
        "AI",
        "创业",
        "行业判断"
      ]
    }
  ]
}
