{
  "updated_at": "2026-03-14T21:01:00.592+08:00",
  "current_page": 2,
  "total_pages": 2,
  "page_size": 60,
  "total_items": 68,
  "items": [
    {
      "id": "b53039b370014990",
      "source_id": "daily_ai_briefs",
      "source_name": "Daily AI Briefs",
      "source_type": "daily_ai_briefs",
      "platform": "TLDR AI",
      "author": "Anthropic",
      "title": "Anthropic invests $100 million into the Claude Partner Network",
      "blurb": "Anthropic 投资 1 亿美元支持 Claude 合作伙伴网络，推动企业级采用。",
      "link": "https://anthropic.com/news/claude-partner-network",
      "canonical_link": "https://anthropic.com/news/claude-partner-network",
      "published_at": "2026-03-13T20:00:00.000+08:00",
      "score": 8,
      "tags": [
        "TLDR AI",
        "business"
      ],
      "source_page": "https://tldr.tech/ai/2026-03-13",
      "source_signal": "Quick link in TLDR AI, major enterprise push by Anthropic.",
      "recommendation": "Anthropic 投资 1 亿美元支持 Claude 合作伙伴网络，推动企业级采用。",
      "summary": "Anthropic 推出 Claude Partner Network，投资 1 亿美元助力企业集成 Claude 模型。该计划针对开发者和服务提供商，提供资源和技术支持。",
      "takeaways": [
        "加速 Claude 在企业生态落地",
        "1 亿美元资金注入伙伴生态"
      ],
      "topic": "business"
    },
    {
      "id": "257866233b35573d",
      "source_id": "daily_ai_briefs",
      "source_name": "Daily AI Briefs",
      "source_type": "daily_ai_briefs",
      "platform": "Hugging Face Papers",
      "author": "Z.ai",
      "title": "IndexCache: Accelerating Sparse Attention via Cross-Layer Index Reuse",
      "blurb": "IndexCache 通过跨层索引复用加速稀疏注意力，优化 Transformer 推理效率。",
      "link": "https://huggingface.co/papers/2603.12201",
      "canonical_link": "https://huggingface.co/papers/2603.12201",
      "published_at": "2026-03-13T20:00:00.000+08:00",
      "score": 8,
      "tags": [
        "Hugging Face Papers",
        "infra"
      ],
      "source_page": "https://huggingface.co/papers/date/2026-03-13",
      "source_signal": "High trending on HF papers (33 trends), key infra optimization for transformers.",
      "recommendation": "IndexCache 通过跨层索引复用加速稀疏注意力，优化 Transformer 推理效率。",
      "summary": "IndexCache 引入跨层索引复用机制，减少稀疏注意力计算冗余，提升长序列模型速度。基准测试显示显著加速而无精度损失。",
      "takeaways": [
        "跨层复用降低计算开销",
        "适用于长上下文 Transformer"
      ],
      "topic": "infra"
    },
    {
      "id": "fd7244b2e67423d7",
      "source_id": "daily_ai_briefs",
      "source_name": "Daily AI Briefs",
      "source_type": "daily_ai_briefs",
      "platform": "TLDR AI",
      "author": "New York Times",
      "title": "Meta Delays Rollout of New AI Model After Performance Concerns",
      "blurb": "Meta推迟Avocado模型发布，因性能未达领先水平，凸显AI竞赛激烈。",
      "link": "https://nytimes.com/2026/03/12/technology/meta-avocado-ai-model-delayed.html",
      "canonical_link": "https://nytimes.com/2026/03/12/technology/meta-avocado-ai-model-delayed.html",
      "published_at": "2026-03-13T20:00:00.000+08:00",
      "score": 8,
      "tags": [
        "TLDR AI",
        "model-release"
      ],
      "source_page": "https://tldr.tech/ai/2026-03-13",
      "source_signal": "Featured headline; indicates competitive pressures in frontier models, Avocado lags leaders.",
      "recommendation": "Meta推迟Avocado模型发布，因性能未达领先水平，凸显AI竞赛激烈。",
      "summary": "Meta的Avocado模型优于前代和Gemini 2.5，但落后于OpenAI和Anthropic。发布延至5月后。公司仍有追赶时间。",
      "takeaways": [
        "Avocado性能接近但未超领先模型",
        "延期反映安全与竞争力优先"
      ],
      "topic": "model-release"
    },
    {
      "id": "7182f4f2b84b8241",
      "source_id": "daily_ai_briefs",
      "source_name": "Daily AI Briefs",
      "source_type": "daily_ai_briefs",
      "platform": "Hacker News",
      "author": "tomshardware.com",
      "title": "Qatar helium shutdown puts chip supply chain on a two-week clock",
      "blurb": "卡塔尔氦气供应中断威胁芯片供应链，对 AI 硬件生产构成短期风险。",
      "link": "https://tomshardware.com/tech-industry/qatar-helium-shutdown-puts-chip-supply-chain-on-a-two-week-clock",
      "canonical_link": "https://tomshardware.com/tech-industry/qatar-helium-shutdown-puts-chip-supply-chain-on-a-two-week-clock",
      "published_at": "2026-03-13T20:00:00.000+08:00",
      "score": 8,
      "tags": [
        "Hacker News",
        "infra"
      ],
      "source_page": "https://news.ycombinator.com/",
      "source_signal": "High HN traction with 626 points and 528 comments, critical infra risk for semiconductors.",
      "recommendation": "卡塔尔氦气供应中断威胁芯片供应链，对 AI 硬件生产构成短期风险。",
      "summary": "卡塔尔氦厂关闭导致全球氦供应紧张，芯片制造面临两周倒计时。该事件凸显半导体供应链脆弱性，可能波及 AI 加速器生产。",
      "takeaways": [
        "氦气短缺影响芯片蚀刻",
        "供应链中断风险加剧"
      ],
      "topic": "infra"
    },
    {
      "id": "a40ac27d6d03a19d",
      "source_id": "daily_ai_briefs",
      "source_name": "Daily AI Briefs",
      "source_type": "daily_ai_briefs",
      "platform": "Hugging Face Papers",
      "author": "Tencent Hunyuan",
      "title": "Spatial-TTT: Streaming Visual-based Spatial Intelligence with Test-Time Training",
      "blurb": "腾讯 Hunyuan 提出 Spatial-TTT，提升流式视觉空间智能，支持测试时训练。",
      "link": "https://arxiv.org/abs/2603.12255",
      "canonical_link": "https://arxiv.org/abs/2603.12255",
      "published_at": "2026-03-13T20:00:00.000+08:00",
      "score": 8,
      "tags": [
        "Hugging Face Papers",
        "research"
      ],
      "source_page": "https://huggingface.co/papers/date/2026-03-13",
      "source_signal": "Top paper on HF daily with 84 trends; advances streaming visual spatial reasoning for agents via test-time training.",
      "recommendation": "腾讯 Hunyuan 提出 Spatial-TTT，提升流式视觉空间智能，支持测试时训练。",
      "summary": "该方法通过测试时训练实现流式视觉基空间智能，适用于动态环境代理。结合视觉输入提升空间推理准确性。高趋势分数反映社区兴趣。",
      "takeaways": [
        "流式处理视觉空间任务",
        "测试时训练提升泛化"
      ],
      "topic": "research"
    },
    {
      "id": "0e4f414f9dfee1ea",
      "source_id": "daily_ai_briefs",
      "source_name": "Daily AI Briefs",
      "source_type": "daily_ai_briefs",
      "platform": "Hugging Face Papers",
      "author": "Tencent Hunyuan",
      "title": "Spatial-TTT: Streaming Visual-based Spatial Intelligence with Test-Time Training",
      "blurb": "Spatial-TTT 通过测试时训练实现流式视觉空间智能，提升代理实时感知。",
      "link": "https://huggingface.co/papers/2603.12255",
      "canonical_link": "https://huggingface.co/papers/2603.12255",
      "published_at": "2026-03-13T20:00:00.000+08:00",
      "score": 8,
      "tags": [
        "Hugging Face Papers",
        "research"
      ],
      "source_page": "https://huggingface.co/papers/date/2026-03-13",
      "source_signal": "Top trending paper on HF daily with 84 trends, advancing visual agents.",
      "recommendation": "Spatial-TTT 通过测试时训练实现流式视觉空间智能，提升代理实时感知。",
      "summary": "该论文提出 Spatial-TTT 框架，利用测试时训练增强视觉代理的空间推理能力，支持流式输入。实验显示在空间任务中显著优于基线。",
      "takeaways": [
        "测试时训练适应流式视觉",
        "提升多模态代理空间智能"
      ],
      "topic": "research"
    },
    {
      "id": "4ede10247fae21ef",
      "source_id": "daily_ai_briefs",
      "source_name": "Daily AI Briefs",
      "source_type": "daily_ai_briefs",
      "platform": "Hugging Face Papers",
      "author": "Language, Intelligence, and Model Evaluation Lab",
      "title": "Video-Based Reward Modeling for Computer-Use Agents",
      "blurb": "提出视频基奖励建模，用于计算机使用代理训练。",
      "link": "https://arxiv.org/abs/2603.10178",
      "canonical_link": "https://arxiv.org/abs/2603.10178",
      "published_at": "2026-03-13T20:00:00.000+08:00",
      "score": 8,
      "tags": [
        "Hugging Face Papers",
        "agent"
      ],
      "source_page": "https://huggingface.co/papers/date/2026-03-13",
      "source_signal": "Prominent HF paper; introduces video-based rewards for training computer-use agents, key for agentic AI progress.",
      "recommendation": "提出视频基奖励建模，用于计算机使用代理训练。",
      "summary": "利用视频轨迹建模奖励函数，提升代理在计算机交互任务的表现。解决传统奖励稀疏问题，支持更真实的用户模拟环境。",
      "takeaways": [
        "视频奖励提升代理计算机操作",
        "适用于真实世界代理训练"
      ],
      "topic": "agent"
    },
    {
      "id": "33fed319432d1dd1",
      "source_id": "daily_ai_briefs",
      "source_name": "Daily AI Briefs",
      "source_type": "daily_ai_briefs",
      "platform": "Hugging Face Papers",
      "author": "Z.ai",
      "title": "IndexCache: Accelerating Sparse Attention via Cross-Layer Index Reuse",
      "blurb": "IndexCache通过跨层索引复用加速稀疏注意力，优化长序列推理。",
      "link": "https://arxiv.org/abs/2603.12201",
      "canonical_link": "https://arxiv.org/abs/2603.12201",
      "published_at": "2026-03-13T20:00:00.000+08:00",
      "score": 7,
      "tags": [
        "Hugging Face Papers",
        "infra"
      ],
      "source_page": "https://huggingface.co/papers/date/2026-03-13",
      "source_signal": "High-ranked daily paper on HF; proposes efficient sparse attention mechanism via index caching, key for scaling long-context models.",
      "recommendation": "IndexCache通过跨层索引复用加速稀疏注意力，优化长序列推理。",
      "summary": "提出IndexCache方法，通过跨层复用索引加速稀疏注意力计算。显著降低Transformer长序列计算开销。适用于高效部署大模型。",
      "takeaways": [
        "提升稀疏注意力效率",
        "利好长上下文模型"
      ],
      "topic": "infra"
    }
  ]
}
