{
  "updated_at": "2026-03-15T04:20:46.044+08:00",
  "current_page": 3,
  "total_pages": 3,
  "page_size": 60,
  "total_items": 143,
  "items": [
    {
      "id": "538bbf7e09d5974a",
      "source_id": "x_ai_signals",
      "source_name": "X AI Signals",
      "source_type": "x_ai_signals",
      "platform": "X",
      "author": "@xiaohu",
      "title": "Claude Code输入框颜色自定义技巧",
      "blurb": "使用/color命令更改Claude Code输入框颜色，提升使用体验。 简单可执行技巧，提高AI编码工具个性化与效率",
      "link": "https://x.com/xiaohu/status/2032699798294577224",
      "canonical_link": "https://x.com/xiaohu/status/2032699798294577224",
      "published_at": "2026-03-14T14:06:12.000+08:00",
      "score": 6,
      "tags": [
        "AI",
        "工具链"
      ]
    },
    {
      "id": "862740d25264438f",
      "source_id": "artist",
      "source_name": "AI Artist Signals",
      "source_type": "artist",
      "platform": "X",
      "author": "@bananababydoll",
      "title": "Nano Banana Pro屋顶派对多人物JSON提示详解",
      "blurb": "艺术家使用Nano Banana Pro生成凌晨屋顶派对混乱场景，包含三个不同类型女性角色。分享完整JSON提示，涵盖iPhone 17 Pro相机元数据、场景照明、运动模糊等细节。强调真实视频截图风格下的不完美效果如风吹头发和霓虹眩光。 提供可复制的复杂多主体提示模板，帮助创作者掌握Nano Banana Pro在夜间动态场景中的精细控制。展示了如何通过JSON结构锁定身份、姿势和摄影瑕疵，提升图像真实感。",
      "link": "https://x.com/bananababydoll/status/2032699748436816339",
      "canonical_link": "https://x.com/bananababydoll/status/2032699748436816339",
      "published_at": "2026-03-14T14:06:00.000+08:00",
      "score": 9,
      "tags": [
        "prompting",
        "tooling"
      ]
    },
    {
      "id": "e68ca2c00ab4e997",
      "source_id": "artist",
      "source_name": "AI Artist Signals",
      "source_type": "artist",
      "platform": "X",
      "author": "@bananababydoll",
      "title": "Rooftop party chaos captured in Nano Banana Pro with detailed JSON prompt",
      "blurb": "展示了使用Nano Banana Pro生成的夜店屋顶混乱派对图像，包含三个不同风格女性的动态姿势和互动。提供了完整的JSON提示模板，包括相机元数据、场景设置、光照温度、运动模糊等技术细节，模拟真实iPhone夜拍效果。强调了低光粒噪、霓虹灯晕染和视频截图风格的真实感。 为AI图像创作者提供了高级JSON提示结构参考，能快速复制手机真实摄影效果，尤其适合夜景和动态人物生成，帮助提升作品的专业度和沉浸感。",
      "link": "https://x.com/bananababydoll/status/2032699748436816337",
      "canonical_link": "https://x.com/bananababydoll/status/2032699748436816337",
      "published_at": "2026-03-14T14:06:00.000+08:00",
      "score": 9,
      "tags": [
        "prompting",
        "tooling"
      ]
    },
    {
      "id": "c0fae567ae63a747",
      "source_id": "x_ai_signals",
      "source_name": "X AI Signals",
      "source_type": "x_ai_signals",
      "platform": "X",
      "author": "@iamtonyzhu",
      "title": "Seedance 2.0生成魔改星球大战视频帖子收益15万人民币",
      "blurb": "用Seedance 2.0生成高画质、无AI痕迹的魔改星球大战讽刺视频，发布后单帖收益15万人民币。强调内容幽默讽刺AI discourse。展示AI视频工具已接近真实水准，可用于内容变现。 揭示AI视频生成工具商业化潜力，高收益案例证明出海内容创作机会；无痕迹高画质降低用户门槛，预示视频AI工具链爆发。",
      "link": "https://x.com/iamtonyzhu/status/2032695599846535263",
      "canonical_link": "https://x.com/iamtonyzhu/status/2032695599846535263",
      "published_at": "2026-03-14T13:49:31.000+08:00",
      "score": 8,
      "tags": [
        "AI",
        "工具链",
        "增长",
        "出海"
      ]
    },
    {
      "id": "dd7085fb36c4554d",
      "source_id": "x_ai_signals",
      "source_name": "X AI Signals",
      "source_type": "x_ai_signals",
      "platform": "X",
      "author": "@steipete",
      "title": "OpenClaw获Nvidia工程师助攻安全，新版实时浏览器上线",
      "blurb": "Nvidia派工程师帮助OpenClaw处理安全公告，开源安全获大厂支持。新版live browser已上线，用户可立即体验。强调安全强化虽有阵痛但必要。 展示AI代理工具产品快速迭代与生态合作，安全是开源增长关键风险点。",
      "link": "https://x.com/steipete/status/2032695227786359080",
      "canonical_link": "https://x.com/steipete/status/2032695227786359080",
      "published_at": "2026-03-14T13:48:02.000+08:00",
      "score": 9,
      "tags": [
        "AI",
        "独立开发",
        "工具链"
      ]
    },
    {
      "id": "f9cb12d3847cbb99",
      "source_id": "x_ai_signals",
      "source_name": "X AI Signals",
      "source_type": "x_ai_signals",
      "platform": "X",
      "author": "@chuhaiqu",
      "title": "X平台创作者分成机制利好",
      "blurb": "X扣违规账号33.5万刀分给优质创作者，中推数百刀英推更多；鼓励真实内容。 平台机制变化创造副业机会，利好AI创业者内容增长。",
      "link": "https://x.com/chuhaiqu/status/2032693876239249793",
      "canonical_link": "https://x.com/chuhaiqu/status/2032693876239249793",
      "published_at": "2026-03-14T13:42:40.000+08:00",
      "score": 6,
      "tags": [
        "增长",
        "创业",
        "出海"
      ]
    },
    {
      "id": "33e7595ff3e93fdc",
      "source_id": "x_ai_signals",
      "source_name": "X AI Signals",
      "source_type": "x_ai_signals",
      "platform": "X",
      "author": "@oran_ge",
      "title": "AI Coding Agent证明10x提效的极端验证法",
      "blurb": "回应AI coding agent难证明10x提效问题：直接把项目组10人砍到1人，就能实现类似效果，暗示人力优化是关键。 点出AI工具落地痛点——ROI证明难，提供可执行思路，防范过度依赖agent的风险。",
      "link": "https://x.com/oran_ge/status/2032687928795934794",
      "canonical_link": "https://x.com/oran_ge/status/2032687928795934794",
      "published_at": "2026-03-14T13:19:02.000+08:00",
      "score": 6,
      "tags": [
        "AI",
        "工具链",
        "增长"
      ]
    },
    {
      "id": "fe21d10150d10d78",
      "source_id": "x_ai_signals",
      "source_name": "X AI Signals",
      "source_type": "x_ai_signals",
      "platform": "X",
      "author": "@lijigang",
      "title": "AI赋能个体产出放大，但上游利润收拢，价值捕获风险凸显",
      "blurb": "AI赋能各行业个体，十倍百倍放大产出，但上游也被放大。过去让渡给下游的利润，现在上游以‘AI干活’为由自然收拢。生产力与价值创造真实，但价值捕获未必在下游。 前瞻性行业判断，揭示AI时代生态重构风险，提醒创业者防范产业链上游挤压利润的机会点。",
      "link": "https://x.com/lijigang/status/2032686649679982614",
      "canonical_link": "https://x.com/lijigang/status/2032686649679982614",
      "published_at": "2026-03-14T13:13:57.000+08:00",
      "score": 9,
      "tags": [
        "AI",
        "创业",
        "增长"
      ]
    },
    {
      "id": "77d8fe801ff81aac",
      "source_id": "x_ai_signals",
      "source_name": "X AI Signals",
      "source_type": "x_ai_signals",
      "platform": "X",
      "author": "@indie_maker_fox",
      "title": "OpenClaw多Agent团队配置实战分享",
      "blurb": "在Discord构建多Agent团队，分身术（单bot多agent）和独立团（多bot）两种方式。分身术配置简单，各agent有独立人格/记忆/skills/模型，无协作需求时最优。独立团复杂，需多Discord app、专属频道、mention配置等，建议优先分身术。 提供多Agent实际工作流细节，避免常见坑点，高可执行性，适用于AI SaaS运营。",
      "link": "https://x.com/indie_maker_fox/status/2032684196129550650",
      "canonical_link": "https://x.com/indie_maker_fox/status/2032684196129550650",
      "published_at": "2026-03-14T13:04:12.000+08:00",
      "score": 10,
      "tags": [
        "AI",
        "工具链",
        "增长"
      ]
    },
    {
      "id": "116cc8c372f23238",
      "source_id": "x_ai_signals",
      "source_name": "X AI Signals",
      "source_type": "x_ai_signals",
      "platform": "X",
      "author": "@hongming731",
      "title": "Claude Code代理学习资源推荐",
      "blurb": "分享Learn Claude Code教程，从零构建最小Claude Code代理，详解核心循环：模型调用、工具执行、反馈迭代。理解AI编码代理机制。 原创筛选优质资源，帮助开发者掌握Agent核心原理，前瞻编码代理趋势。",
      "link": "https://x.com/hongming731/status/2032681122342252858",
      "canonical_link": "https://x.com/hongming731/status/2032681122342252858",
      "published_at": "2026-03-14T12:51:59.000+08:00",
      "score": 7,
      "tags": [
        "AI编程",
        "工具链"
      ]
    },
    {
      "id": "5e138b349eb613b1",
      "source_id": "x_ai_signals",
      "source_name": "X AI Signals",
      "source_type": "x_ai_signals",
      "platform": "X",
      "author": "@emollick",
      "title": "GPQA Diamond基准可视化AI模型竞赛动态",
      "blurb": "使用GPQA Diamond基准展示AI竞赛：OpenAI长期独占，Meta兴起后崩盘，xAI快速追赶后停滞，开源中国LLM强势进入。GPQA为研究生级防谷歌作弊问答测试，非专家上网34%正确率，专家领域65-70%，当前接近饱和。揭示模型性能演变趋势。 提供AI前沿模型性能直观对比，揭示中国开源崛起机会与大厂停滞风险，前瞻性强，便于判断投资与技术跟进方向。",
      "link": "https://x.com/emollick/status/2032677115854757985",
      "canonical_link": "https://x.com/emollick/status/2032677115854757985",
      "published_at": "2026-03-14T12:36:04.000+08:00",
      "score": 9,
      "tags": [
        "AI",
        "行业判断"
      ]
    },
    {
      "id": "6c715c3c6b4a4508",
      "source_id": "x_ai_signals",
      "source_name": "X AI Signals",
      "source_type": "x_ai_signals",
      "platform": "X",
      "author": "@yihui_indie",
      "title": "AI小程序实战课程(下)：腾讯云后台管理发布",
      "blurb": "基于腾讯云云开发，为AI小程序添加管理员登陆后台，支持Seedance2.0提示词增删改查、订单/仪表盘/用户数据查看。课程简单易学实用，已发布视频。 小程序+云开发后台实战，填补AI产品管理空白，提供完整执行路径。",
      "link": "https://x.com/yihui_indie/status/2032670188550988107",
      "canonical_link": "https://x.com/yihui_indie/status/2032670188550988107",
      "published_at": "2026-03-14T12:08:32.000+08:00",
      "score": 8,
      "tags": [
        "AI",
        "独立开发",
        "SaaS"
      ]
    },
    {
      "id": "e9472ed287ef5c6e",
      "source_id": "x_ai_signals",
      "source_name": "X AI Signals",
      "source_type": "x_ai_signals",
      "platform": "X",
      "author": "@jiqizhixin",
      "title": "LLM 与 RL 协同提升推荐系统适应性和鲁棒性",
      "blurb": "中科大、快手等团队调研 LLM 如何解决 RL 在推荐系统中的用户状态表示、动作建模和用户模拟难题。LLM 提供知识与推理能力，使推荐系统更适应用户序列交互、优化长期目标。结果显示，新方法在个性化推荐上优于传统模型，更具可解释性。 揭示 LLM-RL 融合的前瞻趋势，为推荐系统创业提供技术路径和研究机会，避免纯 RL 的局限。",
      "link": "https://x.com/jiqizhixin/status/2032670052458147845",
      "canonical_link": "https://x.com/jiqizhixin/status/2032670052458147845",
      "published_at": "2026-03-14T12:08:00.000+08:00",
      "score": 8,
      "tags": [
        "AI",
        "研究",
        "推荐系统"
      ]
    },
    {
      "id": "68f6e71f9f8370d8",
      "source_id": "x_ai_signals",
      "source_name": "X AI Signals",
      "source_type": "x_ai_signals",
      "platform": "X",
      "author": "@yupi996",
      "title": "OpenClaw中文网上线，提供完整文档翻译与速查工具",
      "blurb": "鱼皮推出OpenClaw中文网，全AI翻译官方英文文档，并整理CLI命令大全、斜杠命令大全等速查内容。支持通过QQ、飞书、微信等聊天App操控AI智能体，实现回邮件、管理日程、电脑任务自动化。项目完全开源，后续更新保姆级教程。 降低OpenClaw上手门槛，助力中文用户快速部署AI智能体；开源生态扩展，潜在商业机会如教程变现或服务增值。",
      "link": "https://x.com/yupi996/status/2032668436942434506",
      "canonical_link": "https://x.com/yupi996/status/2032668436942434506",
      "published_at": "2026-03-14T12:01:35.000+08:00",
      "score": 9,
      "tags": [
        "AI",
        "工具链",
        "开源"
      ]
    },
    {
      "id": "fe525c82ee5008e4",
      "source_id": "artist",
      "source_name": "AI Artist Signals",
      "source_type": "artist",
      "platform": "X",
      "author": "@omokage_AIsOK",
      "title": "颗粒感画面与柔和触感，太爱了",
      "blurb": "作者分享了四张AI生成的图像，突出颗粒感（grainy）和柔和触感（soft touch）的视觉效果。图像展现出日本日常场景的诗意氛围，具有复古胶片般的质感和梦幻柔焦。帖子获得较高互动，体现了这种风格的吸引力。 Demonstrates a niche aesthetic combo of grainy texture and soft rendering that's evocative for storytelling in AI…",
      "link": "https://x.com/omokage_AIsOK/status/2032668046402154990",
      "canonical_link": "https://x.com/omokage_AIsOK/status/2032668046402154990",
      "published_at": "2026-03-14T12:00:02.000+08:00",
      "score": 7,
      "tags": [
        "showcase",
        "style"
      ]
    },
    {
      "id": "399d88ba117d2e95",
      "source_id": "x_ai_signals",
      "source_name": "X AI Signals",
      "source_type": "x_ai_signals",
      "platform": "X",
      "author": "@dotey",
      "title": "xAI前员工爆料内部管理问题与文化冲突",
      "blurb": "详细梳理xAI前员工Benjamin De Kraker的两起事件：排名泄密风波与征集Grok改进建议被打压。揭示xAI嘴上扁平组织、实际中层管理盛行，新员工热情被浇灭。公司官方承认需重建，评论区两派争论激烈。吃瓜要点包括时间线、马斯克回应及文化代表性。 揭示大厂AI公司内部管理风险与文化问题，前瞻xAI重建机会，提醒创业者注意组织扁平化陷阱",
      "link": "https://x.com/dotey/status/2032666923251458353",
      "canonical_link": "https://x.com/dotey/status/2032666923251458353",
      "published_at": "2026-03-14T11:55:34.000+08:00",
      "score": 9,
      "tags": [
        "AI",
        "创业",
        "行业判断"
      ]
    },
    {
      "id": "60f34e302a06ac9b",
      "source_id": "daily_ai_briefs",
      "source_name": "Daily AI Briefs",
      "source_type": "daily_ai_briefs",
      "platform": "TLDR AI",
      "author": "Cursor",
      "title": "How we compare model quality in Cursor (CursorBench)",
      "blurb": "CursorBench基准测试真实编码场景，推动代理模型质量评估标准化。",
      "link": "https://cursor.com/blog/cursorbench",
      "canonical_link": "https://cursor.com/blog/cursorbench",
      "published_at": "2026-03-13T20:00:00.000+08:00",
      "score": 9,
      "tags": [
        "TLDR AI",
        "benchmark"
      ],
      "source_page": "https://tldr.tech/ai/2026-03-13",
      "source_signal": "Engineering deep dive in TLDR; CursorBench is a real-world benchmark for coding agents, combining offline evals with live traffic analysis.",
      "recommendation": "CursorBench基准测试真实编码场景，推动代理模型质量评估标准化。",
      "summary": "Cursor使用混合在线离线评估，包括基于真实会话的CursorBench，衡量代码正确性、效率和交互行为。结合生产流量分析，捕捉离线评估遗漏的回归。",
      "takeaways": [
        "多维度代理性能评估",
        "生产级模型质量对齐"
      ],
      "topic": "benchmark"
    },
    {
      "id": "b53039b370014990",
      "source_id": "daily_ai_briefs",
      "source_name": "Daily AI Briefs",
      "source_type": "daily_ai_briefs",
      "platform": "TLDR AI",
      "author": "Anthropic",
      "title": "Anthropic invests $100 million into the Claude Partner Network",
      "blurb": "Anthropic 投资 1 亿美元支持 Claude 合作伙伴网络，推动企业级采用。",
      "link": "https://anthropic.com/news/claude-partner-network",
      "canonical_link": "https://anthropic.com/news/claude-partner-network",
      "published_at": "2026-03-13T20:00:00.000+08:00",
      "score": 8,
      "tags": [
        "TLDR AI",
        "business"
      ],
      "source_page": "https://tldr.tech/ai/2026-03-13",
      "source_signal": "Quick link in TLDR AI, major enterprise push by Anthropic.",
      "recommendation": "Anthropic 投资 1 亿美元支持 Claude 合作伙伴网络，推动企业级采用。",
      "summary": "Anthropic 推出 Claude Partner Network，投资 1 亿美元助力企业集成 Claude 模型。该计划针对开发者和服务提供商，提供资源和技术支持。",
      "takeaways": [
        "加速 Claude 在企业生态落地",
        "1 亿美元资金注入伙伴生态"
      ],
      "topic": "business"
    },
    {
      "id": "33fed319432d1dd1",
      "source_id": "daily_ai_briefs",
      "source_name": "Daily AI Briefs",
      "source_type": "daily_ai_briefs",
      "platform": "Hugging Face Papers",
      "author": "Z.ai",
      "title": "IndexCache: Accelerating Sparse Attention via Cross-Layer Index Reuse",
      "blurb": "IndexCache 通过跨层索引复用加速稀疏注意力，优化 Transformer 推理效率。",
      "link": "https://arxiv.org/abs/2603.12201",
      "canonical_link": "https://arxiv.org/abs/2603.12201",
      "published_at": "2026-03-13T20:00:00.000+08:00",
      "score": 8,
      "tags": [
        "Hugging Face Papers",
        "infra"
      ],
      "source_page": "https://huggingface.co/papers/date/2026-03-13",
      "source_signal": "High trending on HF papers (33 trends), key infra optimization for transformers.",
      "recommendation": "IndexCache 通过跨层索引复用加速稀疏注意力，优化 Transformer 推理效率。",
      "summary": "IndexCache 引入跨层索引复用机制，减少稀疏注意力计算冗余，提升长序列模型速度。基准测试显示显著加速而无精度损失。",
      "takeaways": [
        "跨层复用降低计算开销",
        "适用于长上下文 Transformer"
      ],
      "topic": "infra"
    },
    {
      "id": "fd7244b2e67423d7",
      "source_id": "daily_ai_briefs",
      "source_name": "Daily AI Briefs",
      "source_type": "daily_ai_briefs",
      "platform": "TLDR AI",
      "author": "New York Times",
      "title": "Meta Delays Rollout of New AI Model After Performance Concerns",
      "blurb": "Meta推迟Avocado模型发布，因性能未达领先水平，凸显AI竞赛激烈。",
      "link": "https://nytimes.com/2026/03/12/technology/meta-avocado-ai-model-delayed.html",
      "canonical_link": "https://nytimes.com/2026/03/12/technology/meta-avocado-ai-model-delayed.html",
      "published_at": "2026-03-13T20:00:00.000+08:00",
      "score": 8,
      "tags": [
        "TLDR AI",
        "model-release"
      ],
      "source_page": "https://tldr.tech/ai/2026-03-13",
      "source_signal": "Featured headline; indicates competitive pressures in frontier models, Avocado lags leaders.",
      "recommendation": "Meta推迟Avocado模型发布，因性能未达领先水平，凸显AI竞赛激烈。",
      "summary": "Meta的Avocado模型优于前代和Gemini 2.5，但落后于OpenAI和Anthropic。发布延至5月后。公司仍有追赶时间。",
      "takeaways": [
        "Avocado性能接近但未超领先模型",
        "延期反映安全与竞争力优先"
      ],
      "topic": "model-release"
    },
    {
      "id": "9e2051dbbddf3778",
      "source_id": "daily_ai_briefs",
      "source_name": "Daily AI Briefs",
      "source_type": "daily_ai_briefs",
      "platform": "TLDR AI",
      "author": "Gen-Verse",
      "title": "OpenClaw Reinforcement Learning Framework",
      "blurb": "开源强化学习框架，支持从对话训练个性化代理，大规模并行环境。",
      "link": "https://github.com/Gen-Verse/OpenClaw-RL",
      "canonical_link": "https://github.com/Gen-Verse/OpenClaw-RL",
      "published_at": "2026-03-13T20:00:00.000+08:00",
      "score": 8,
      "tags": [
        "TLDR AI",
        "tooling"
      ],
      "source_page": "https://tldr.tech/ai/2026-03-13",
      "source_signal": "Featured repo in TLDR engineering; open-source RL framework for training personalized agents from conversations, supports massive parallelization.",
      "recommendation": "开源强化学习框架，支持从对话训练个性化代理，大规模并行环境。",
      "summary": "OpenClaw-RL异步RL框架，用于从日常对话训练个性化AI代理。支持大规模环境并行化，推动通用代理开发。",
      "takeaways": [
        "对话驱动代理训练",
        "高效并行化提升泛化"
      ],
      "topic": "tooling"
    },
    {
      "id": "7182f4f2b84b8241",
      "source_id": "daily_ai_briefs",
      "source_name": "Daily AI Briefs",
      "source_type": "daily_ai_briefs",
      "platform": "Hacker News",
      "author": "tomshardware.com",
      "title": "Qatar helium shutdown puts chip supply chain on a two-week clock",
      "blurb": "卡塔尔氦气供应中断威胁芯片供应链，对 AI 硬件生产构成短期风险。",
      "link": "https://tomshardware.com/tech-industry/qatar-helium-shutdown-puts-chip-supply-chain-on-a-two-week-clock",
      "canonical_link": "https://tomshardware.com/tech-industry/qatar-helium-shutdown-puts-chip-supply-chain-on-a-two-week-clock",
      "published_at": "2026-03-13T20:00:00.000+08:00",
      "score": 8,
      "tags": [
        "Hacker News",
        "infra"
      ],
      "source_page": "https://news.ycombinator.com/",
      "source_signal": "High HN traction with 626 points and 528 comments, critical infra risk for semiconductors.",
      "recommendation": "卡塔尔氦气供应中断威胁芯片供应链，对 AI 硬件生产构成短期风险。",
      "summary": "卡塔尔氦厂关闭导致全球氦供应紧张，芯片制造面临两周倒计时。该事件凸显半导体供应链脆弱性，可能波及 AI 加速器生产。",
      "takeaways": [
        "氦气短缺影响芯片蚀刻",
        "供应链中断风险加剧"
      ],
      "topic": "infra"
    },
    {
      "id": "a40ac27d6d03a19d",
      "source_id": "daily_ai_briefs",
      "source_name": "Daily AI Briefs",
      "source_type": "daily_ai_briefs",
      "platform": "Hugging Face Papers",
      "author": "Tencent Hunyuan",
      "title": "Spatial-TTT: Streaming Visual-based Spatial Intelligence with Test-Time Training",
      "blurb": "腾讯 Hunyuan 提出 Spatial-TTT，提升流式视觉空间智能，支持测试时训练。",
      "link": "https://arxiv.org/abs/2603.12255",
      "canonical_link": "https://arxiv.org/abs/2603.12255",
      "published_at": "2026-03-13T20:00:00.000+08:00",
      "score": 8,
      "tags": [
        "Hugging Face Papers",
        "research"
      ],
      "source_page": "https://huggingface.co/papers/date/2026-03-13",
      "source_signal": "Top paper on HF daily with 84 trends; advances streaming visual spatial reasoning for agents via test-time training.",
      "recommendation": "腾讯 Hunyuan 提出 Spatial-TTT，提升流式视觉空间智能，支持测试时训练。",
      "summary": "该方法通过测试时训练实现流式视觉基空间智能，适用于动态环境代理。结合视觉输入提升空间推理准确性。高趋势分数反映社区兴趣。",
      "takeaways": [
        "流式处理视觉空间任务",
        "测试时训练提升泛化"
      ],
      "topic": "research"
    }
  ]
}
