{
  "updated_at": "2026-03-15T12:28:20.664+08:00",
  "current_page": 4,
  "total_pages": 4,
  "page_size": 60,
  "total_items": 188,
  "items": [
    {
      "id": "fe525c82ee5008e4",
      "source_id": "artist",
      "source_name": "AI Artist Signals",
      "source_type": "artist",
      "platform": "X",
      "author": "@omokage_AIsOK",
      "title": "颗粒感画面与柔和触感，太爱了",
      "blurb": "作者分享了四张AI生成的图像，突出颗粒感（grainy）和柔和触感（soft touch）的视觉效果。图像展现出日本日常场景的诗意氛围，具有复古胶片般的质感和梦幻柔焦。帖子获得较高互动，体现了这种风格的吸引力。 Demonstrates a niche aesthetic combo of grainy texture and soft rendering that's evocative for storytelling in AI…",
      "link": "https://x.com/omokage_AIsOK/status/2032668046402154990",
      "canonical_link": "https://x.com/omokage_AIsOK/status/2032668046402154990",
      "published_at": "2026-03-14T12:00:02.000+08:00",
      "score": 7,
      "tags": [
        "showcase",
        "style"
      ]
    },
    {
      "id": "399d88ba117d2e95",
      "source_id": "x_ai_signals",
      "source_name": "X AI Signals",
      "source_type": "x_ai_signals",
      "platform": "X",
      "author": "@dotey",
      "title": "xAI前员工爆料内部管理问题与文化冲突",
      "blurb": "详细梳理xAI前员工Benjamin De Kraker的两起事件：排名泄密风波与征集Grok改进建议被打压。揭示xAI嘴上扁平组织、实际中层管理盛行，新员工热情被浇灭。公司官方承认需重建，评论区两派争论激烈。吃瓜要点包括时间线、马斯克回应及文化代表性。 揭示大厂AI公司内部管理风险与文化问题，前瞻xAI重建机会，提醒创业者注意组织扁平化陷阱",
      "link": "https://x.com/dotey/status/2032666923251458353",
      "canonical_link": "https://x.com/dotey/status/2032666923251458353",
      "published_at": "2026-03-14T11:55:34.000+08:00",
      "score": 9,
      "tags": [
        "AI",
        "创业",
        "行业判断"
      ]
    },
    {
      "id": "60f34e302a06ac9b",
      "source_id": "daily_ai_briefs",
      "source_name": "Daily AI Briefs",
      "source_type": "daily_ai_briefs",
      "platform": "TLDR AI",
      "author": "Cursor",
      "title": "How we compare model quality in Cursor (CursorBench)",
      "blurb": "CursorBench基准测试真实编码场景，推动代理模型质量评估标准化。",
      "link": "https://cursor.com/blog/cursorbench",
      "canonical_link": "https://cursor.com/blog/cursorbench",
      "published_at": "2026-03-13T20:00:00.000+08:00",
      "score": 9,
      "tags": [
        "TLDR AI",
        "benchmark"
      ],
      "source_page": "https://tldr.tech/ai/2026-03-13",
      "source_signal": "Engineering deep dive in TLDR; CursorBench is a real-world benchmark for coding agents, combining offline evals with live traffic analysis.",
      "recommendation": "CursorBench基准测试真实编码场景，推动代理模型质量评估标准化。",
      "summary": "Cursor使用混合在线离线评估，包括基于真实会话的CursorBench，衡量代码正确性、效率和交互行为。结合生产流量分析，捕捉离线评估遗漏的回归。",
      "takeaways": [
        "多维度代理性能评估",
        "生产级模型质量对齐"
      ],
      "topic": "benchmark"
    },
    {
      "id": "33fed319432d1dd1",
      "source_id": "daily_ai_briefs",
      "source_name": "Daily AI Briefs",
      "source_type": "daily_ai_briefs",
      "platform": "Hugging Face Papers",
      "author": "Z.ai",
      "title": "IndexCache: Accelerating Sparse Attention via Cross-Layer Index Reuse",
      "blurb": "IndexCache 通过跨层索引复用加速稀疏注意力，优化 Transformer 推理效率。",
      "link": "https://arxiv.org/abs/2603.12201",
      "canonical_link": "https://arxiv.org/abs/2603.12201",
      "published_at": "2026-03-13T20:00:00.000+08:00",
      "score": 8,
      "tags": [
        "Hugging Face Papers",
        "infra"
      ],
      "source_page": "https://huggingface.co/papers/date/2026-03-13",
      "source_signal": "High trending on HF papers (33 trends), key infra optimization for transformers.",
      "recommendation": "IndexCache 通过跨层索引复用加速稀疏注意力，优化 Transformer 推理效率。",
      "summary": "IndexCache 引入跨层索引复用机制，减少稀疏注意力计算冗余，提升长序列模型速度。基准测试显示显著加速而无精度损失。",
      "takeaways": [
        "跨层复用降低计算开销",
        "适用于长上下文 Transformer"
      ],
      "topic": "infra"
    },
    {
      "id": "fd7244b2e67423d7",
      "source_id": "daily_ai_briefs",
      "source_name": "Daily AI Briefs",
      "source_type": "daily_ai_briefs",
      "platform": "TLDR AI",
      "author": "New York Times",
      "title": "Meta Delays Rollout of New AI Model After Performance Concerns",
      "blurb": "Meta推迟Avocado模型发布，因性能未达领先水平，凸显AI竞赛激烈。",
      "link": "https://nytimes.com/2026/03/12/technology/meta-avocado-ai-model-delayed.html",
      "canonical_link": "https://nytimes.com/2026/03/12/technology/meta-avocado-ai-model-delayed.html",
      "published_at": "2026-03-13T20:00:00.000+08:00",
      "score": 8,
      "tags": [
        "TLDR AI",
        "model-release"
      ],
      "source_page": "https://tldr.tech/ai/2026-03-13",
      "source_signal": "Featured headline; indicates competitive pressures in frontier models, Avocado lags leaders.",
      "recommendation": "Meta推迟Avocado模型发布，因性能未达领先水平，凸显AI竞赛激烈。",
      "summary": "Meta的Avocado模型优于前代和Gemini 2.5，但落后于OpenAI和Anthropic。发布延至5月后。公司仍有追赶时间。",
      "takeaways": [
        "Avocado性能接近但未超领先模型",
        "延期反映安全与竞争力优先"
      ],
      "topic": "model-release"
    },
    {
      "id": "9e2051dbbddf3778",
      "source_id": "daily_ai_briefs",
      "source_name": "Daily AI Briefs",
      "source_type": "daily_ai_briefs",
      "platform": "TLDR AI",
      "author": "Gen-Verse",
      "title": "OpenClaw Reinforcement Learning Framework",
      "blurb": "开源强化学习框架，支持从对话训练个性化代理，大规模并行环境。",
      "link": "https://github.com/Gen-Verse/OpenClaw-RL",
      "canonical_link": "https://github.com/Gen-Verse/OpenClaw-RL",
      "published_at": "2026-03-13T20:00:00.000+08:00",
      "score": 8,
      "tags": [
        "TLDR AI",
        "tooling"
      ],
      "source_page": "https://tldr.tech/ai/2026-03-13",
      "source_signal": "Featured repo in TLDR engineering; open-source RL framework for training personalized agents from conversations, supports massive parallelization.",
      "recommendation": "开源强化学习框架，支持从对话训练个性化代理，大规模并行环境。",
      "summary": "OpenClaw-RL异步RL框架，用于从日常对话训练个性化AI代理。支持大规模环境并行化，推动通用代理开发。",
      "takeaways": [
        "对话驱动代理训练",
        "高效并行化提升泛化"
      ],
      "topic": "tooling"
    },
    {
      "id": "7182f4f2b84b8241",
      "source_id": "daily_ai_briefs",
      "source_name": "Daily AI Briefs",
      "source_type": "daily_ai_briefs",
      "platform": "Hacker News",
      "author": "tomshardware.com",
      "title": "Qatar helium shutdown puts chip supply chain on a two-week clock",
      "blurb": "卡塔尔氦气供应中断威胁芯片供应链，对 AI 硬件生产构成短期风险。",
      "link": "https://tomshardware.com/tech-industry/qatar-helium-shutdown-puts-chip-supply-chain-on-a-two-week-clock",
      "canonical_link": "https://tomshardware.com/tech-industry/qatar-helium-shutdown-puts-chip-supply-chain-on-a-two-week-clock",
      "published_at": "2026-03-13T20:00:00.000+08:00",
      "score": 8,
      "tags": [
        "Hacker News",
        "infra"
      ],
      "source_page": "https://news.ycombinator.com/",
      "source_signal": "High HN traction with 626 points and 528 comments, critical infra risk for semiconductors.",
      "recommendation": "卡塔尔氦气供应中断威胁芯片供应链，对 AI 硬件生产构成短期风险。",
      "summary": "卡塔尔氦厂关闭导致全球氦供应紧张，芯片制造面临两周倒计时。该事件凸显半导体供应链脆弱性，可能波及 AI 加速器生产。",
      "takeaways": [
        "氦气短缺影响芯片蚀刻",
        "供应链中断风险加剧"
      ],
      "topic": "infra"
    },
    {
      "id": "a40ac27d6d03a19d",
      "source_id": "daily_ai_briefs",
      "source_name": "Daily AI Briefs",
      "source_type": "daily_ai_briefs",
      "platform": "Hugging Face Papers",
      "author": "Tencent Hunyuan",
      "title": "Spatial-TTT: Streaming Visual-based Spatial Intelligence with Test-Time Training",
      "blurb": "腾讯 Hunyuan 提出 Spatial-TTT，提升流式视觉空间智能，支持测试时训练。",
      "link": "https://arxiv.org/abs/2603.12255",
      "canonical_link": "https://arxiv.org/abs/2603.12255",
      "published_at": "2026-03-13T20:00:00.000+08:00",
      "score": 8,
      "tags": [
        "Hugging Face Papers",
        "research"
      ],
      "source_page": "https://huggingface.co/papers/date/2026-03-13",
      "source_signal": "Top paper on HF daily with 84 trends; advances streaming visual spatial reasoning for agents via test-time training.",
      "recommendation": "腾讯 Hunyuan 提出 Spatial-TTT，提升流式视觉空间智能，支持测试时训练。",
      "summary": "该方法通过测试时训练实现流式视觉基空间智能，适用于动态环境代理。结合视觉输入提升空间推理准确性。高趋势分数反映社区兴趣。",
      "takeaways": [
        "流式处理视觉空间任务",
        "测试时训练提升泛化"
      ],
      "topic": "research"
    }
  ]
}
