{
  "updated_at": "2026-03-16T14:16:35.758+08:00",
  "current_page": 7,
  "total_pages": 7,
  "page_size": 60,
  "total_items": 362,
  "items": [
    {
      "id": "4ede10247fae21ef",
      "source_id": "daily_ai_briefs",
      "source_name": "Daily AI Briefs",
      "source_type": "daily_ai_briefs",
      "platform": "Hugging Face Papers",
      "author": "Language, Intelligence, and Model Evaluation Lab",
      "title": "Video-Based Reward Modeling for Computer-Use Agents",
      "blurb": "视频奖励模型优化计算机代理训练，推动代理自动化。",
      "link": "https://arxiv.org/abs/2603.10178",
      "canonical_link": "https://arxiv.org/abs/2603.10178",
      "published_at": "2026-03-13T20:00:00.000+08:00",
      "score": 8,
      "tags": [
        "Hugging Face Papers",
        "agent"
      ],
      "source_page": "https://huggingface.co/papers/date/2026-03-13",
      "source_signal": "Hugging Face 热门论文，聚焦计算机使用代理的视频奖励建模。",
      "recommendation": "视频奖励模型优化计算机代理训练，推动代理自动化。",
      "summary": "提出基于视频的奖励建模方法，用于计算机使用代理训练。通过视觉反馈提升代理在屏幕操作任务中的性能，支持更精确的强化学习。",
      "takeaways": [
        "视频监督增强代理奖励信号。",
        "适用于 GUI 和计算机控制任务。"
      ],
      "topic": "agent"
    },
    {
      "id": "3f15890759eb05cb",
      "source_id": "daily_ai_briefs",
      "source_name": "Daily AI Briefs",
      "source_type": "daily_ai_briefs",
      "platform": "Hugging Face Papers",
      "author": "5 authors",
      "title": "XSkill: Continual Learning from Experience and Skills in Multimodal Agents",
      "blurb": "多模态代理持续学习框架，支持经验复用。",
      "link": "https://arxiv.org/abs/2603.12056",
      "canonical_link": "https://arxiv.org/abs/2603.12056",
      "published_at": "2026-03-13T20:00:00.000+08:00",
      "score": 8,
      "tags": [
        "Hugging Face Papers",
        "agent"
      ],
      "source_page": "https://huggingface.co/papers/date/2026-03-13",
      "source_signal": "HF trending; enables continual skill learning in multimodal agents from experience replay.",
      "recommendation": "多模态代理持续学习框架，支持经验复用。",
      "summary": "XSkill 框架让多模态代理从经验和技能中持续学习。通过经验回放和技能库，提高长期任务适应性。该工作针对代理的终身学习挑战。",
      "takeaways": [
        "经验驱动持续学习",
        "适用于多模态环境"
      ],
      "topic": "agent"
    }
  ]
}
